Chapter 12 Universal enrichment analysis | Biomedical Knowledge Mining using GOSemSim and clusterProfiler
…
gene <- names(geneList)[abs(geneList) > 2]
head(gene)

## [1] "4312"  "8318"  "10874" "55143" "55388" "991"

12.2 Cell Marker

cell_markers <- vroom::vroom('http://bio-bigdata.hrbmu.edu.cn/CellMarker/download/Human_cell_markers.txt') %>%
   tidyr::unite("cellMarker", tissueType, cancerType, cellName, sep=", ") %>% 
   dplyr::select(cellMarker, geneID) %>%
   dplyr::mutate(geneID = strsplit(geneID, ', '))
cell_markers

## # A tibble: 2,868 x 2
##    cellMarker                                             geneID   
##    <chr>                                                  <list>   
##  1 Kidney, Normal, Proximal tubular cell                  <chr [1]>
##  2 Liver, Normal, Ito cell (hepatic stellate cell)        <chr [1]>
##  3 Endometrium, Normal, Trophoblast cell                  <chr [1]>
##  4 Germ, Normal, Primordial germ cell                     <chr [1]>
##  5 Corneal epithelium, Normal, Epithelial cell            <chr [1]>
##  6 Placenta, Normal, Cytotrophoblast                      <chr [1]>
##  7 Periosteum, Normal, Periosteum-derived progenitor cell <chr [4]>
##  8 Amniotic membrane, Normal, Amnion epithelial cell      <chr [2]>
##  9 Primitive streak, Normal, Primitive streak cell        <chr [2]>
## 10 Adipose tissue, Normal, Stromal vascular fraction cell <chr [1]>
## # … with 2,858 more rows
…
